,Energia,ONI
01/09/2011,92.50953438,25.92
01/10/2011,72.86567944,25.67
01/11/2011,70.53858276,25.52
01/12/2011,55.75605648,25.55
01/01/2012,53.61037947,25.68
01/02/2012,78.49598145,26.1
01/03/2012,119.1052139,26.69
01/04/2012,56.99427419,27.33
01/05/2012,46.85869274,27.62
01/06/2012,87.35270907,27.75
01/07/2012,79.17754592,27.54
01/08/2012,140.262201,27.32
01/09/2012,183.3778401,27.1
01/10/2012,198.0038063,26.98
01/11/2012,166.998227,26.86
01/12/2012,180.3391705,26.35
01/01/2013,184.456129,26.02
01/02/2013,181.1771429,26.25
01/03/2013,137.5393548,27.04
01/04/2013,229.8233333,27.58
01/05/2013,139.8151613,27.53
01/06/2013,143.1023333,27.3
01/07/2013,232.14,26.9
01/08/2013,150.5509677,26.47
01/09/2013,144.206,26.53
01/10/2013,211.9387097,26.52
01/11/2013,210.3856667,26.56
01/12/2013,164.0322581,26.43
01/01/2014,160.516129,26.06
01/02/2014,188.0714286,26.15
01/03/2014,151.2258065,27.02
01/04/2014,373.7,27.91
01/05/2014,381.9677419,28.26
01/06/2014,334.9666667,27.96
01/07/2014,184.7419355,27.23
01/08/2014,200.1290323,26.83
01/09/2014,177.3333333,27.01
01/10/2014,207,27.16
01/11/2014,166.5666667,27.46
01/12/2014,175.1612903,27.32
01/01/2015,190.7037849,27.06
01/02/2015,169.2050016,27.18
01/03/2015,208.1901926,27.77
01/04/2015,163.9725727,28.53
01/05/2015,267.0488818,28.85
01/06/2015,191.9529698,28.9
01/07/2015,211.1056586,28.75
01/08/2015,187.5400084,28.78
01/09/2015,467.2863974,28.92
01/10/2015,1116.898572,29.07
01/11/2015,775.7309098,29.41
01/12/2015,638.3577986,29.26
01/01/2016,554.1589823,29.11
01/02/2016,645.9999111,29
01/03/2016,830.0181968,28.9
01/04/2016,332.4932637,28.73
01/05/2016,140.3103808,28.24
01/06/2016,167.9719166,27.7
01/07/2016,129.2143741,26.82
01/08/2016,198.0151265,26.28
01/09/2016,150.5920679,26.15
01/10/2016,184.9469691,25.98
01/11/2016,166.6776215,25.95
01/12/2016,107.4392801,26.1
01/01/2017,111.5064357,26.12
01/02/2017,156.994687,26.68
01/03/2017,119.8590929,27.33
01/04/2017,96.47702439,28.04
01/05/2017,71.64878804,28.3
01/06/2017,68.49988571,28.06
01/07/2017,70.48312341,27.54
