"","Percentil 1","Percentil 5","Promedio","Percentil 95","Percentil 99","Desviacion","Prob. de superar"
"2020-01-01",0.0801262254769614,0.0801262254769614,0.0801262254769614,0.0801262254769614,0.0801262254769614,0.00000000000000000861270129418633,0.221
"2021-01-01",0.0799073013636364,0.0799073013636364,0.0799073013636364,0.0799073013636364,0.0799073013636364,0.00000000000000000621246988014881,0.263
"2022-01-01",0.0799751267707878,0.0799751267707878,0.0799751267707879,0.0799751267707879,0.0799751267707879,0.00000000000000000888987215150061,1
"2023-01-01",0.0592214469281091,0.0626029012622753,0.0792658125036674,0.106069327765454,0.134695368531746,0.0143903066075694,0.35
"2024-01-01",0.494607771877343,0.499376701580498,0.521888258419957,0.558752156768452,0.577677215700187,0.0183988360849273,1
"2025-01-01",0.0492090682863973,0.0528552222248546,0.0769668522377789,0.117009698230321,0.146132554298696,0.0205866238436273,1
"2026-01-01",0.0500903401415901,0.0540865160426487,0.0794403785134421,0.119269328632331,0.151680085652611,0.0224932982739667,1
"2027-01-01",0.0502125726524809,0.0545460841066607,0.0807454438004289,0.127372626924958,0.163578517177261,0.0238677016317707,1
"2028-01-01",0.0515486483655479,0.0568440169888165,0.0842530727246402,0.136293363327733,0.179484433833255,0.0255303019493359,1
"2029-01-01",0.0495767218209995,0.0540609546741525,0.08316078646194,0.130803086101592,0.180049276031007,0.0274039429375851,1
"2030-01-01",0.0434665105776602,0.0476473971748296,0.0766782369841577,0.128863388521529,0.182339956329473,0.0274771987337936,1
"2031-01-01",0.0383768807735603,0.0430141395849208,0.0740203670715331,0.128503992835616,0.178757472332417,0.0300020964289976,1
"2032-01-01",1.0387129003828,1.04277747840743,1.07415154958521,1.13274519870315,1.18104905744232,0.0310088246341801,1
