"","R-cuadrado Dentro","R-cuadrado Fuera"
"SVM",0.848716215805901,-0.118815547344867
"RF",0.573225393201984,0.28398235824483
"LM-F",0.644062700275584,0.244416015539072
"LM-B",0.618587833455378,0.414927677271407
"QR",0.585614442236349,0.341364372028838
"LC 1E",0.906469050782029,-0.121241570307778
